module gitlab.com/ivanbulyk/itunes_charts_crawler

go 1.17

require (
	github.com/go-chi/chi v1.5.4
	go.uber.org/zap v1.21.0
)

require (
	go.uber.org/atomic v1.7.0 // indirect
	go.uber.org/multierr v1.6.0 // indirect
)
